<svg width="1068" height="668" viewBox="0 0 1068 668" fill="none" xmlns="http://www.w3.org/2000/svg">
<g filter="url(#filter0_d_9_24)">
<ellipse cx="10.1541" cy="10.7442" rx="10.1541" ry="10.7442" transform="matrix(0.999998 0.00198809 -0.00234785 0.999997 4.70483 357.41)" fill="white"/>
</g>
<g filter="url(#filter1_d_9_24)">
<ellipse cx="8.70352" cy="9.20932" rx="8.70352" ry="9.20932" transform="matrix(0.999998 0.00198809 -0.00234785 0.999997 678.467 251.735)" fill="white"/>
</g>
<g filter="url(#filter2_d_9_24)">
<ellipse cx="9.42884" cy="9.97676" rx="9.42884" ry="9.97676" transform="matrix(0.999998 0.00198809 -0.00234785 0.999997 367.896 112.428)" fill="white"/>
</g>
<g filter="url(#filter3_d_9_24)">
<ellipse cx="7.25294" cy="7.67443" rx="7.25294" ry="7.67443" transform="matrix(0.999998 0.00198809 -0.00234785 0.999997 360.921 151.017)" fill="white"/>
</g>
<g filter="url(#filter4_d_9_24)">
<ellipse cx="10.1541" cy="10.7442" rx="10.1541" ry="10.7442" transform="matrix(0.999998 0.00198809 -0.00234785 0.999997 566.327 1.11487)" fill="white"/>
</g>
<g filter="url(#filter5_d_9_24)">
<ellipse cx="10.1541" cy="10.7442" rx="10.1541" ry="10.7442" transform="matrix(0.999998 0.00198809 -0.00234785 0.999997 797.462 91.4163)" fill="white"/>
</g>
<g filter="url(#filter6_d_9_24)">
<ellipse cx="10.1541" cy="10.7442" rx="10.1541" ry="10.7442" transform="matrix(0.999998 0.00198809 -0.00234785 0.999997 675.922 142.306)" fill="white"/>
</g>
<g filter="url(#filter7_d_9_24)">
<ellipse cx="8.70352" cy="9.20932" rx="8.70352" ry="9.20932" transform="matrix(0.999998 0.00198809 -0.00234785 0.999997 823.031 424.554)" fill="white"/>
</g>
<g filter="url(#filter8_d_9_24)">
<ellipse cx="9.42884" cy="9.97676" rx="9.42884" ry="9.97676" transform="matrix(0.999998 0.00198809 -0.00234785 0.999997 1010.58 252.126)" fill="white"/>
</g>
<g filter="url(#filter9_d_9_24)">
<ellipse cx="9.42884" cy="9.97676" rx="9.42884" ry="9.97676" transform="matrix(0.999998 0.00198809 -0.00234785 0.999997 1008.72 419.226)" fill="white"/>
</g>
<g filter="url(#filter10_d_9_24)">
<path d="M782.989 573.331C782.974 579.689 778.091 584.833 772.083 584.821C766.074 584.809 761.215 579.645 761.23 573.288C761.245 566.93 766.128 561.786 772.137 561.798C778.145 561.81 783.004 566.973 782.989 573.331Z" fill="white"/>
</g>
<g filter="url(#filter11_d_9_24)">
<path d="M1063.61 649.711C1063.6 655.221 1059.37 659.679 1054.16 659.669C1048.95 659.658 1044.74 655.183 1044.75 649.673C1044.77 644.163 1049 639.705 1054.21 639.715C1059.41 639.725 1063.62 644.201 1063.61 649.711Z" fill="white"/>
</g>
<defs>
<filter id="filter0_d_9_24" x="0.679565" y="357.43" width="28.3083" height="29.4883" filterUnits="userSpaceOnUse" color-interpolation-filters="sRGB">
<feFlood flood-opacity="0" result="BackgroundImageFix"/>
<feColorMatrix in="SourceAlpha" type="matrix" values="0 0 0 0 0 0 0 0 0 0 0 0 0 0 0 0 0 0 127 0" result="hardAlpha"/>
<feOffset dy="4"/>
<feGaussianBlur stdDeviation="2"/>
<feComposite in2="hardAlpha" operator="out"/>
<feColorMatrix type="matrix" values="0 0 0 0 0 0 0 0 0 0 0 0 0 0 0 0 0 0 0.25 0"/>
<feBlend mode="normal" in2="BackgroundImageFix" result="effect1_dropShadow_9_24"/>
<feBlend mode="normal" in="SourceGraphic" in2="effect1_dropShadow_9_24" result="shape"/>
</filter>
<filter id="filter1_d_9_24" x="674.446" y="251.752" width="25.407" height="26.4186" filterUnits="userSpaceOnUse" color-interpolation-filters="sRGB">
<feFlood flood-opacity="0" result="BackgroundImageFix"/>
<feColorMatrix in="SourceAlpha" type="matrix" values="0 0 0 0 0 0 0 0 0 0 0 0 0 0 0 0 0 0 127 0" result="hardAlpha"/>
<feOffset dy="4"/>
<feGaussianBlur stdDeviation="2"/>
<feComposite in2="hardAlpha" operator="out"/>
<feColorMatrix type="matrix" values="0 0 0 0 0 0 0 0 0 0 0 0 0 0 0 0 0 0 0.25 0"/>
<feBlend mode="normal" in2="BackgroundImageFix" result="effect1_dropShadow_9_24"/>
<feBlend mode="normal" in="SourceGraphic" in2="effect1_dropShadow_9_24" result="shape"/>
</filter>
<filter id="filter2_d_9_24" x="363.873" y="112.447" width="26.8577" height="27.9536" filterUnits="userSpaceOnUse" color-interpolation-filters="sRGB">
<feFlood flood-opacity="0" result="BackgroundImageFix"/>
<feColorMatrix in="SourceAlpha" type="matrix" values="0 0 0 0 0 0 0 0 0 0 0 0 0 0 0 0 0 0 127 0" result="hardAlpha"/>
<feOffset dy="4"/>
<feGaussianBlur stdDeviation="2"/>
<feComposite in2="hardAlpha" operator="out"/>
<feColorMatrix type="matrix" values="0 0 0 0 0 0 0 0 0 0 0 0 0 0 0 0 0 0 0.25 0"/>
<feBlend mode="normal" in2="BackgroundImageFix" result="effect1_dropShadow_9_24"/>
<feBlend mode="normal" in="SourceGraphic" in2="effect1_dropShadow_9_24" result="shape"/>
</filter>
<filter id="filter3_d_9_24" x="356.903" y="151.031" width="22.506" height="23.3489" filterUnits="userSpaceOnUse" color-interpolation-filters="sRGB">
<feFlood flood-opacity="0" result="BackgroundImageFix"/>
<feColorMatrix in="SourceAlpha" type="matrix" values="0 0 0 0 0 0 0 0 0 0 0 0 0 0 0 0 0 0 127 0" result="hardAlpha"/>
<feOffset dy="4"/>
<feGaussianBlur stdDeviation="2"/>
<feComposite in2="hardAlpha" operator="out"/>
<feColorMatrix type="matrix" values="0 0 0 0 0 0 0 0 0 0 0 0 0 0 0 0 0 0 0.25 0"/>
<feBlend mode="normal" in2="BackgroundImageFix" result="effect1_dropShadow_9_24"/>
<feBlend mode="normal" in="SourceGraphic" in2="effect1_dropShadow_9_24" result="shape"/>
</filter>
<filter id="filter4_d_9_24" x="562.302" y="1.13501" width="28.3083" height="29.4884" filterUnits="userSpaceOnUse" color-interpolation-filters="sRGB">
<feFlood flood-opacity="0" result="BackgroundImageFix"/>
<feColorMatrix in="SourceAlpha" type="matrix" values="0 0 0 0 0 0 0 0 0 0 0 0 0 0 0 0 0 0 127 0" result="hardAlpha"/>
<feOffset dy="4"/>
<feGaussianBlur stdDeviation="2"/>
<feComposite in2="hardAlpha" operator="out"/>
<feColorMatrix type="matrix" values="0 0 0 0 0 0 0 0 0 0 0 0 0 0 0 0 0 0 0.25 0"/>
<feBlend mode="normal" in2="BackgroundImageFix" result="effect1_dropShadow_9_24"/>
<feBlend mode="normal" in="SourceGraphic" in2="effect1_dropShadow_9_24" result="shape"/>
</filter>
<filter id="filter5_d_9_24" x="793.437" y="91.4364" width="28.3083" height="29.4884" filterUnits="userSpaceOnUse" color-interpolation-filters="sRGB">
<feFlood flood-opacity="0" result="BackgroundImageFix"/>
<feColorMatrix in="SourceAlpha" type="matrix" values="0 0 0 0 0 0 0 0 0 0 0 0 0 0 0 0 0 0 127 0" result="hardAlpha"/>
<feOffset dy="4"/>
<feGaussianBlur stdDeviation="2"/>
<feComposite in2="hardAlpha" operator="out"/>
<feColorMatrix type="matrix" values="0 0 0 0 0 0 0 0 0 0 0 0 0 0 0 0 0 0 0.25 0"/>
<feBlend mode="normal" in2="BackgroundImageFix" result="effect1_dropShadow_9_24"/>
<feBlend mode="normal" in="SourceGraphic" in2="effect1_dropShadow_9_24" result="shape"/>
</filter>
<filter id="filter6_d_9_24" x="671.897" y="142.326" width="28.3083" height="29.4884" filterUnits="userSpaceOnUse" color-interpolation-filters="sRGB">
<feFlood flood-opacity="0" result="BackgroundImageFix"/>
<feColorMatrix in="SourceAlpha" type="matrix" values="0 0 0 0 0 0 0 0 0 0 0 0 0 0 0 0 0 0 127 0" result="hardAlpha"/>
<feOffset dy="4"/>
<feGaussianBlur stdDeviation="2"/>
<feComposite in2="hardAlpha" operator="out"/>
<feColorMatrix type="matrix" values="0 0 0 0 0 0 0 0 0 0 0 0 0 0 0 0 0 0 0.25 0"/>
<feBlend mode="normal" in2="BackgroundImageFix" result="effect1_dropShadow_9_24"/>
<feBlend mode="normal" in="SourceGraphic" in2="effect1_dropShadow_9_24" result="shape"/>
</filter>
<filter id="filter7_d_9_24" x="819.01" y="424.572" width="25.4071" height="26.4185" filterUnits="userSpaceOnUse" color-interpolation-filters="sRGB">
<feFlood flood-opacity="0" result="BackgroundImageFix"/>
<feColorMatrix in="SourceAlpha" type="matrix" values="0 0 0 0 0 0 0 0 0 0 0 0 0 0 0 0 0 0 127 0" result="hardAlpha"/>
<feOffset dy="4"/>
<feGaussianBlur stdDeviation="2"/>
<feComposite in2="hardAlpha" operator="out"/>
<feColorMatrix type="matrix" values="0 0 0 0 0 0 0 0 0 0 0 0 0 0 0 0 0 0 0.25 0"/>
<feBlend mode="normal" in2="BackgroundImageFix" result="effect1_dropShadow_9_24"/>
<feBlend mode="normal" in="SourceGraphic" in2="effect1_dropShadow_9_24" result="shape"/>
</filter>
<filter id="filter8_d_9_24" x="1006.55" y="252.145" width="26.8577" height="27.9535" filterUnits="userSpaceOnUse" color-interpolation-filters="sRGB">
<feFlood flood-opacity="0" result="BackgroundImageFix"/>
<feColorMatrix in="SourceAlpha" type="matrix" values="0 0 0 0 0 0 0 0 0 0 0 0 0 0 0 0 0 0 127 0" result="hardAlpha"/>
<feOffset dy="4"/>
<feGaussianBlur stdDeviation="2"/>
<feComposite in2="hardAlpha" operator="out"/>
<feColorMatrix type="matrix" values="0 0 0 0 0 0 0 0 0 0 0 0 0 0 0 0 0 0 0.25 0"/>
<feBlend mode="normal" in2="BackgroundImageFix" result="effect1_dropShadow_9_24"/>
<feBlend mode="normal" in="SourceGraphic" in2="effect1_dropShadow_9_24" result="shape"/>
</filter>
<filter id="filter9_d_9_24" x="1004.69" y="419.245" width="26.8577" height="27.9534" filterUnits="userSpaceOnUse" color-interpolation-filters="sRGB">
<feFlood flood-opacity="0" result="BackgroundImageFix"/>
<feColorMatrix in="SourceAlpha" type="matrix" values="0 0 0 0 0 0 0 0 0 0 0 0 0 0 0 0 0 0 127 0" result="hardAlpha"/>
<feOffset dy="4"/>
<feGaussianBlur stdDeviation="2"/>
<feComposite in2="hardAlpha" operator="out"/>
<feColorMatrix type="matrix" values="0 0 0 0 0 0 0 0 0 0 0 0 0 0 0 0 0 0 0.25 0"/>
<feBlend mode="normal" in2="BackgroundImageFix" result="effect1_dropShadow_9_24"/>
<feBlend mode="normal" in="SourceGraphic" in2="effect1_dropShadow_9_24" result="shape"/>
</filter>
<filter id="filter10_d_9_24" x="757.23" y="561.798" width="29.7589" height="31.0232" filterUnits="userSpaceOnUse" color-interpolation-filters="sRGB">
<feFlood flood-opacity="0" result="BackgroundImageFix"/>
<feColorMatrix in="SourceAlpha" type="matrix" values="0 0 0 0 0 0 0 0 0 0 0 0 0 0 0 0 0 0 127 0" result="hardAlpha"/>
<feOffset dy="4"/>
<feGaussianBlur stdDeviation="2"/>
<feComposite in2="hardAlpha" operator="out"/>
<feColorMatrix type="matrix" values="0 0 0 0 0 0 0 0 0 0 0 0 0 0 0 0 0 0 0.25 0"/>
<feBlend mode="normal" in2="BackgroundImageFix" result="effect1_dropShadow_9_24"/>
<feBlend mode="normal" in="SourceGraphic" in2="effect1_dropShadow_9_24" result="shape"/>
</filter>
<filter id="filter11_d_9_24" x="1040.75" y="639.715" width="26.8577" height="27.9534" filterUnits="userSpaceOnUse" color-interpolation-filters="sRGB">
<feFlood flood-opacity="0" result="BackgroundImageFix"/>
<feColorMatrix in="SourceAlpha" type="matrix" values="0 0 0 0 0 0 0 0 0 0 0 0 0 0 0 0 0 0 127 0" result="hardAlpha"/>
<feOffset dy="4"/>
<feGaussianBlur stdDeviation="2"/>
<feComposite in2="hardAlpha" operator="out"/>
<feColorMatrix type="matrix" values="0 0 0 0 0 0 0 0 0 0 0 0 0 0 0 0 0 0 0.25 0"/>
<feBlend mode="normal" in2="BackgroundImageFix" result="effect1_dropShadow_9_24"/>
<feBlend mode="normal" in="SourceGraphic" in2="effect1_dropShadow_9_24" result="shape"/>
</filter>
</defs>
</svg>
